…
```r
library(tidyverse)
#> -- Attaching packages -------------------------------------------------- tidyverse 1.2.1 --
#> v ggplot2 3.0.0     v purrr   0.2.5
#> v tibble  1.4.2     v dplyr   0.7.6
#> v tidyr   0.8.1     v stringr 1.3.1
#> v readr   1.1.1     v forcats 0.3.0
#> -- Conflicts ----------------------------------------------------- tidyverse_conflicts() --
#> x dplyr::filter() masks stats::filter()
#> x dplyr::lag()    masks stats::lag()
dat <- readRDS("./data/bargraphdat.RDS")
dat
#> # A tibble: 18 x 5
#>   drug          use_type  mean lower upper
#>   <chr>         <chr>    <dbl> <dbl> <dbl>
#> 1 Buprenorphine use       5.45  5.26  5.64
#> 2 Fentanyl      use       9.26  9.02  9.51
#> 3 Hydrocodone   use      46.8  46.4  47.2 
#> 4 Hydromorphone use       6.08  5.89  6.28
#> 5 Methadone     use       5.59  5.39  5.79
#> 6 Morphine      use      18.7  18.4  19.0 
#> # ... with 12 more rows
```
…
```r
table1
#> # A tibble: 6 x 4
#>   country      year  cases population
#>   <chr>       <int>  <int>      <int>
#> 1 Afghanistan  1999    745   19987071
#> 2 Afghanistan  2000   2666   20595360
#> 3 Brazil       1999  37737  172006362
#> 4 Brazil       2000  80488  174504898
#> 5 China        1999 212258 1272915272
#> 6 China        2000 213766 1280428583
table2
#> # A tibble: 12 x 4
#>   country      year type           count
#>   <chr>       <int> <chr>          <int>
#> 1 Afghanistan  1999 cases            745
#> 2 Afghanistan  1999 population  19987071
#> 3 Afghanistan  2000 cases           2666
#> 4 Afghanistan  2000 population  20595360
#> 5 Brazil       1999 cases          37737
#> 6 Brazil       1999 population 172006362
#> # ... with 6 more rows
…
### Spreading

Spreading is the opposite of gathering. You use it when an observation is scattered across multiple rows. For example, take `table2`: an observation is a country in a year, but each observation is spread across two rows.


```r
table2
#> # A tibble: 12 x 4
#>   country      year type           count
#>   <chr>       <int> <chr>          <int>
#> 1 Afghanistan  1999 cases            745
#> 2 Afghanistan  1999 population  19987071
#> 3 Afghanistan  2000 cases           2666
#> 4 Afghanistan  2000 population  20595360
#> 5 Brazil       1999 cases          37737
#> 6 Brazil       1999 population 172006362
#> # ... with 6 more rows
```
…
* __Explicitly__, i.e. flagged with `NA`.
* __Implicitly__, i.e. simply not present in the data.

Let's illustrate this idea with a very simple data set:


```r
mydata <- tibble(
  year   = c(2015, 2015, 2015, 2015, 2016, 2016, 2016),
  qtr    = c(   1,    2,    3,    4,    2,    3,    4),
  rate   = c(1.88, 0.59, 0.35,   NA, 0.92, 0.17, 2.66)
)

mydata
#> # A tibble: 7 x 3
#>    year   qtr  rate
#>   <dbl> <dbl> <dbl>
#> 1  2015     1  1.88
#> 2  2015     2  0.59
#> 3  2015     3  0.35
#> 4  2015     4 NA   
#> 5  2016     2  0.92
#> 6  2016     3  0.17
#> # ... with 1 more row
```
…
Another important tool for making missing values explicit in tidy data is `complete()`:


```r
mydata %>% 
  complete(year, qtr)
#> # A tibble: 8 x 3
#>    year   qtr  rate
#>   <dbl> <dbl> <dbl>
#> 1  2015     1  1.88
#> 2  2015     2  0.59
#> 3  2015     3  0.35
#> 4  2015     4 NA   
#> 5  2016     1 NA   
#> 6  2016     2  0.92
#> # ... with 2 more rows
```
…
