Modern R in a Corporate Environment
…
Each observational unit forms a table

library(tidyverse)
#> -- Attaching packages ------------------------------------------------------- tidyverse 1.2.1 --
#> v ggplot2 2.2.1     v purrr   0.2.4
#> v tibble  1.4.2     v dplyr   0.7.4
#> v tidyr   0.8.0     v stringr 1.3.0
#> v readr   1.1.1     v forcats 0.3.0
#> -- Conflicts ---------------------------------------------------------- tidyverse_conflicts() --
#> x dplyr::filter() masks stats::filter()
#> x dplyr::lag()    masks stats::lag()
dat <- readRDS("./data/bargraphdat.RDS")
dat
#> # A tibble: 18 x 5
#>   drug          use_type  mean lower upper
#>   <chr>         <chr>    <dbl> <dbl> <dbl>
#> 1 Buprenorphine use       5.45  5.26  5.64
#> 2 Fentanyl      use       9.26  9.02  9.51
#> 3 Hydrocodone   use      46.8  46.4  47.2 
#> 4 Hydromorphone use       6.08  5.89  6.28
#> 5 Methadone     use       5.59  5.39  5.79
#> 6 Morphine      use      18.7  18.4  19.0 
#> # ... with 12 more rows
…
