Modern R in a Corporate Environment
…
# full
full_join(x, y, by = c("id", "yq"))
#> # A tibble: 7 x 4
#>      id yq     question1 question2
#>   <dbl> <chr>  <chr>     <chr>    
#> 1     1 2018Q1 Yes       <NA>     
#> 2     1 2018Q2 No        Method1  
#> 3     2 2018Q1 Yes       Method2  
#> 4     3 2018Q1 Yes       <NA>     
#> 5     3 2018Q2 Yes       Method2  
#> 6     2 2018Q2 <NA>      Method2  
#> # ... with 1 more row
full_join(y, x, by = c("id", "yq"))
#> # A tibble: 7 x 4
#>      id yq     question2 question1
#>   <dbl> <chr>  <chr>     <chr>    
#> 1     1 2018Q2 Method1   No       
#> 2     2 2018Q1 Method2   Yes      
#> 3     2 2018Q2 Method2   <NA>     
#> 4     3 2018Q2 Method2   Yes      
#> 5     4 2018Q1 Method1   <NA>     
#> 6     1 2018Q1 <NA>      Yes      
#> # ... with 1 more row
…
