Modern R in a Corporate Environment
…
You can represent the same underlying data in multiple ways. The example below shows the same data organised in four different ways. Each dataset shows the same values of four variables country, year, population, and cases, but each dataset organizes the values in a different way.

table1
#> # A tibble: 6 x 4
#>   country      year  cases population
#>   <chr>       <int>  <int>      <int>
#> 1 Afghanistan  1999    745   19987071
#> 2 Afghanistan  2000   2666   20595360
#> 3 Brazil       1999  37737  172006362
#> 4 Brazil       2000  80488  174504898
#> 5 China        1999 212258 1272915272
#> 6 China        2000 213766 1280428583
table2
#> # A tibble: 12 x 4
#>   country      year type           count
#>   <chr>       <int> <chr>          <int>
#> 1 Afghanistan  1999 cases            745
#> 2 Afghanistan  1999 population  19987071
#> 3 Afghanistan  2000 cases           2666
#> 4 Afghanistan  2000 population  20595360
#> 5 Brazil       1999 cases          37737
#> 6 Brazil       1999 population 172006362
#> # ... with 6 more rows
…
7.3.2 Spreading

Spreading is the opposite of gathering. You use it when an observation is scattered across multiple rows. For example, take table2: an observation is a country in a year, but each observation is spread across two rows.

table2
#> # A tibble: 12 x 4
#>   country      year type           count
#>   <chr>       <int> <chr>          <int>
#> 1 Afghanistan  1999 cases            745
#> 2 Afghanistan  1999 population  19987071
#> 3 Afghanistan  2000 cases           2666
#> 4 Afghanistan  2000 population  20595360
#> 5 Brazil       1999 cases          37737
#> 6 Brazil       1999 population 172006362
#> # ... with 6 more rows
…
Explicitly, i.e. flagged with NA.

Implicitly, i.e. simply not present in the data.

Let’s illustrate this idea with a very simple data set:

mydata <- tibble(
  year   = c(2015, 2015, 2015, 2015, 2016, 2016, 2016),
  qtr    = c(   1,    2,    3,    4,    2,    3,    4),
  rate   = c(1.88, 0.59, 0.35,   NA, 0.92, 0.17, 2.66)
)

mydata
#> # A tibble: 7 x 3
#>    year   qtr  rate
#>   <dbl> <dbl> <dbl>
#> 1  2015     1  1.88
#> 2  2015     2  0.59
#> 3  2015     3  0.35
#> 4  2015     4 NA   
#> 5  2016     2  0.92
#> 6  2016     3  0.17
#> # ... with 1 more row
…
Another important tool for making missing values explicit in tidy data is complete():

mydata %>% 
  complete(year, qtr)
#> # A tibble: 8 x 3
#>    year   qtr  rate
#>   <dbl> <dbl> <dbl>
#> 1  2015     1  1.88
#> 2  2015     2  0.59
#> 3  2015     3  0.35
#> 4  2015     4 NA   
#> 5  2016     1 NA   
#> 6  2016     2  0.92
#> # ... with 2 more rows
…
